{"failedCount":0,"prefixedPath":"classpath:Spotify\/Categories.feature","packageQualifiedName":"Spotify.Categories","loopIndex":-1,"relativePath":"Spotify\/Categories.feature","scenarioResults":[{"sectionIndex":0,"stepResults":[{"result":{"nanos":323200,"startTime":1736245440440,"endTime":1736245440440,"millis":0.3232,"status":"passed"},"step":{"background":true,"line":4,"prefix":"*","index":0,"text":"header Authorization = 'Bearer ' + tokenID"}},{"result":{"nanos":473800,"startTime":1736245440440,"endTime":1736245440440,"millis":0.4738,"status":"passed"},"step":{"line":7,"prefix":"Given","index":0,"text":"url 'https:\/\/api.spotify.com\/v1\/browse\/categories'"}},{"result":{"nanos":264261500,"startTime":1736245440441,"endTime":1736245440705,"millis":264.2615,"status":"passed"},"step":{"line":8,"prefix":"When","index":1,"text":"method GET"},"stepLog":"15:54:00.441 request:\n1 > GET https:\/\/api.spotify.com\/v1\/browse\/categories\n1 > Authorization: Bearer BQBj1uRj_JEnF1pQvRzHOOkbsEI1H0zhJWSY6Mv1Jz6WXhwDpjW2mgIRHeBb3QSyxut81w3EHLiQ1lh9c9QBY2cMaFOgkSfGEbt4dIzABajCuH-B5C03jvwORmodrjiexBn71riPUdAiJxwGCzl8xfys7s6nQnpF0JELBHNO_p8Unn5Vr2wDZenHb68yBxrB5l2ZN5nZqh4ivEMw8IpoLxwfWnn_KqmVXmSLDl-oVbdxEY2esLjBxFL4Bst6Nj_1IItv-PeN55fNpMujnySB3evpxHBzWbKwMmVI0O9fQf89sEBv9paDMTTncWsgdQETkkGk53hXXzGw9SEJIIfG\n1 > Host: api.spotify.com\n1 > Connection: Keep-Alive\n1 > User-Agent: Apache-HttpClient\/4.5.12 (Java\/17.0.10)\n1 > Accept-Encoding: gzip,deflate\n\n\n15:54:00.704 response time in milliseconds: 262\n1 < 200\n1 < content-type: application\/json; charset=utf-8\n1 < cache-control: public, max-age=0\n1 < etag: \"MC-ImZlOTA2MDQyZTc0YzI1ZjIxMTZlMDEyMTA0MmIwNGMwIg==\"\n1 < x-robots-tag: noindex, nofollow\n1 < access-control-allow-origin: *\n1 < access-control-allow-headers: Accept, App-Platform, Authorization, Content-Type, Origin, Retry-After, Spotify-App-Version, X-Cloud-Trace-Context, client-token, content-access-token\n1 < access-control-allow-methods: GET, POST, OPTIONS, PUT, DELETE, PATCH\n1 < access-control-allow-credentials: true\n1 < access-control-max-age: 604800\n1 < strict-transport-security: max-age=31536000\n1 < x-content-type-options: nosniff\n1 < date: Tue, 07 Jan 2025 10:24:00 GMT\n1 < server: envoy\n1 < Via: HTTP\/2 edgeproxy, 1.1 google\n1 < Alt-Svc: h3=\":443\"; ma=2592000,h3-29=\":443\"; ma=2592000\n1 < Transfer-Encoding: chunked\n{\"categories\":{\"href\":\"https:\/\/api.spotify.com\/v1\/browse\/categories?offset=0&limit=20\",\"items\":[{\"href\":\"https:\/\/api.spotify.com\/v1\/browse\/categories\/0JQ5DAqbMKFC7do0jUgBzi\",\"id\":\"0JQ5DAqbMKFC7do0jUgBzi\",\"icons\":[{\"height\":274,\"url\":\"https:\/\/t.scdn.co\/images\/728ed47fc1674feb95f7ac20236eb6d7.jpeg\",\"width\":274}],\"name\":\"2024 in Music\"},{\"href\":\"https:\/\/api.spotify.com\/v1\/browse\/categories\/0JQ5DAt0tbjZptfcdMSKl3\",\"id\":\"0JQ5DAt0tbjZptfcdMSKl3\",\"icons\":[{\"height\":274,\"url\":\"https:\/\/t.scdn.co\/images\/728ed47fc1674feb95f7ac20236eb6d7.jpeg\",\"width\":274}],\"name\":\"Made For You\"},{\"href\":\"https:\/\/api.spotify.com\/v1\/browse\/categories\/0JQ5DAqbMKFz6FAsUtgAab\",\"id\":\"0JQ5DAqbMKFz6FAsUtgAab\",\"icons\":[{\"height\":274,\"url\":\"https:\/\/t.scdn.co\/images\/728ed47fc1674feb95f7ac20236eb6d7.jpeg\",\"width\":274}],\"name\":\"New Releases\"},{\"href\":\"https:\/\/api.spotify.com\/v1\/browse\/categories\/0JQ5DAqbMKFHCxg5H5PtqW\",\"id\":\"0JQ5DAqbMKFHCxg5H5PtqW\",\"icons\":[{\"height\":274,\"url\":\"https:\/\/t.scdn.co\/images\/8a0fabf4d537486e9b5a4623c921f77e.jpeg\",\"width\":274}],\"name\":\"Hindi\"},{\"href\":\"https:\/\/api.spotify.com\/v1\/browse\/categories\/0JQ5DAqbMKFKSopHMaeIeI\",\"id\":\"0JQ5DAqbMKFKSopHMaeIeI\",\"icons\":[{\"height\":274,\"url\":\"https:\/\/t.scdn.co\/images\/11e89d14d7844b7eb3d26619cb662a9b.jpeg\",\"width\":274}],\"name\":\"Punjabi\"},{\"href\":\"https:\/\/api.spotify.com\/v1\/browse\/categories\/0JQ5DAqbMKFE33XAyDiPIr\",\"id\":\"0JQ5DAqbMKFE33XAyDiPIr\",\"icons\":[{\"height\":274,\"url\":\"https:\/\/t.scdn.co\/images\/2117dadfdd254825b3fbc52e3652ed56.jpeg\",\"width\":274}],\"name\":\"Tamil\"},{\"href\":\"https:\/\/api.spotify.com\/v1\/browse\/categories\/0JQ5DAqbMKFIdOwkMWR5at\",\"id\":\"0JQ5DAqbMKFIdOwkMWR5at\",\"icons\":[{\"height\":274,\"url\":\"https:\/\/t.scdn.co\/images\/96b5132876eb4e818723555ce365cd87.jpeg\",\"width\":274}],\"name\":\"Telugu\"},{\"href\":\"https:\/\/api.spotify.com\/v1\/browse\/categories\/0JQ5DAudkNjCgYMM0TZXDw\",\"id\":\"0JQ5DAudkNjCgYMM0TZXDw\",\"icons\":[{\"height\":274,\"url\":\"https:\/\/charts-images.scdn.co\/spotify-charts-logos\/music_charts_search_arrow_274x274.jpeg\",\"width\":274}],\"name\":\"Charts\"},{\"href\":\"https:\/\/api.spotify.com\/v1\/browse\/categories\/0JQ5DAqbMKFKtQGjXD19nw\",\"id\":\"0JQ5DAqbMKFKtQGjXD19nw\",\"icons\":[{\"height\":274,\"url\":\"https:\/\/t.scdn.co\/images\/728ed47fc1674feb95f7ac20236eb6d7.jpeg\",\"width\":274}],\"name\":\"Malayalam\"},{\"href\":\"https:\/\/api.spotify.com\/v1\/browse\/categories\/0JQ5DAqbMKFB7mJpXZv2vV\",\"id\":\"0JQ5DAqbMKFB7mJpXZv2vV\",\"icons\":[{\"height\":274,\"url\":\"https:\/\/t.scdn.co\/images\/728ed47fc1674feb95f7ac20236eb6d7.jpeg\",\"width\":274}],\"name\":\"Bhojpuri\"},{\"href\":\"https:\/\/api.spotify.com\/v1\/browse\/categories\/0JQ5DAqbMKFDKyRxRDLIbk\",\"id\":\"0JQ5DAqbMKFDKyRxRDLIbk\",\"icons\":[{\"height\":274,\"url\":\"https:\/\/t.scdn.co\/images\/dec76a385201436281efb6796a54f479.jpeg\",\"width\":274}],\"name\":\"Happy Holidays\"},{\"href\":\"https:\/\/api.spotify.com\/v1\/browse\/categories\/0JQ5DAqbMKFLVaM30PMBm4\",\"id\":\"0JQ5DAqbMKFLVaM30PMBm4\",\"icons\":[{\"height\":274,\"url\":\"https:\/\/t.scdn.co\/images\/8e508d7eb5b843a89c368c9507ecc429.jpeg\",\"width\":274}],\"name\":\"Summer\"},{\"href\":\"https:\/\/api.spotify.com\/v1\/browse\/categories\/0JQ5DAtOnAEpjOgUKwXyxj\",\"id\":\"0JQ5DAtOnAEpjOgUKwXyxj\",\"icons\":[{\"height\":274,\"url\":\"https:\/\/t.scdn.co\/images\/728ed47fc1674feb95f7ac20236eb6d7.jpeg\",\"width\":274}],\"name\":\"Discover\"},{\"href\":\"https:\/\/api.spotify.com\/v1\/browse\/categories\/0JQ5DAqbMKFEcBibYcDrCH\",\"id\":\"0JQ5DAqbMKFEcBibYcDrCH\",\"icons\":[{\"height\":274,\"url\":\"https:\/\/t.scdn.co\/images\/728ed47fc1674feb95f7ac20236eb6d7.jpeg\",\"width\":274}],\"name\":\"Ghazals\"},{\"href\":\"https:\/\/api.spotify.com\/v1\/browse\/categories\/0JQ5DAqbMKFEC4WFtoNRpw\",\"id\":\"0JQ5DAqbMKFEC4WFtoNRpw\",\"icons\":[{\"height\":274,\"url\":\"https:\/\/t.scdn.co\/media\/derived\/pop-274x274_447148649685019f5e2a03a39e78ba52_0_0_274_274.jpg\",\"width\":274}],\"name\":\"Pop\"},{\"href\":\"https:\/\/api.spotify.com\/v1\/browse\/categories\/0JQ5DAqbMKFCWjUTdzaG0e\",\"id\":\"0JQ5DAqbMKFCWjUTdzaG0e\",\"icons\":[{\"height\":274,\"url\":\"https:\/\/t.scdn.co\/images\/fe06caf056474bc58862591cd60b57fc.jpeg\",\"width\":274}],\"name\":\"Indie\"},{\"href\":\"https:\/\/api.spotify.com\/v1\/browse\/categories\/0JQ5DAqbMKFAUsdyVjCQuL\",\"id\":\"0JQ5DAqbMKFAUsdyVjCQuL\",\"icons\":[{\"height\":274,\"url\":\"https:\/\/t.scdn.co\/media\/derived\/romance-274x274_8100794c94847b6d27858bed6fa4d91b_0_0_274_274.jpg\",\"width\":274}],\"name\":\"Love\"},{\"href\":\"https:\/\/api.spotify.com\/v1\/browse\/categories\/0JQ5DAqbMKFQIL0AXnG5AK\",\"id\":\"0JQ5DAqbMKFQIL0AXnG5AK\",\"icons\":[{\"height\":274,\"url\":\"https:\/\/t.scdn.co\/images\/ac75ec857b714a118c73218bb58664e5.jpeg\",\"width\":274}],\"name\":\"Trending\"},{\"href\":\"https:\/\/api.spotify.com\/v1\/browse\/categories\/0JQ5DAqbMKFzHmL4tf05da\",\"id\":\"0JQ5DAqbMKFzHmL4tf05da\",\"icons\":[{\"height\":274,\"url\":\"https:\/\/t.scdn.co\/media\/original\/mood-274x274_976986a31ac8c49794cbdc7246fd5ad7_274x274.jpg\",\"width\":274}],\"name\":\"Mood\"},{\"href\":\"https:\/\/api.spotify.com\/v1\/browse\/categories\/0JQ5DAqbMKFA6SOHvT3gck\",\"id\":\"0JQ5DAqbMKFA6SOHvT3gck\",\"icons\":[{\"height\":274,\"url\":\"https:\/\/t.scdn.co\/images\/7ee6530d5b3c4acc9a0957046bf11d63\",\"width\":274}],\"name\":\"Party\"}],\"limit\":20,\"next\":\"https:\/\/api.spotify.com\/v1\/browse\/categories?offset=20&limit=20\",\"offset\":0,\"previous\":null,\"total\":68}}\n\n"},{"result":{"nanos":7001,"startTime":1736245440705,"endTime":1736245440705,"millis":0.007001,"status":"passed"},"step":{"line":9,"prefix":"Then","index":2,"text":"status 200"}},{"result":{"nanos":428300,"startTime":1736245440705,"endTime":1736245440705,"millis":0.4283,"status":"passed"},"step":{"line":10,"prefix":"And","index":3,"text":"print response"},"stepLog":"15:54:00.705 [print] {\n  \"categories\": {\n    \"href\": \"https:\/\/api.spotify.com\/v1\/browse\/categories?offset=0&limit=20\",\n    \"items\": [\n      {\n        \"href\": \"https:\/\/api.spotify.com\/v1\/browse\/categories\/0JQ5DAqbMKFC7do0jUgBzi\",\n        \"id\": \"0JQ5DAqbMKFC7do0jUgBzi\",\n        \"icons\": [\n          {\n            \"height\": 274,\n            \"url\": \"https:\/\/t.scdn.co\/images\/728ed47fc1674feb95f7ac20236eb6d7.jpeg\",\n            \"width\": 274\n          }\n        ],\n        \"name\": \"2024 in Music\"\n      },\n      {\n        \"href\": \"https:\/\/api.spotify.com\/v1\/browse\/categories\/0JQ5DAt0tbjZptfcdMSKl3\",\n        \"id\": \"0JQ5DAt0tbjZptfcdMSKl3\",\n        \"icons\": [\n          {\n            \"height\": 274,\n            \"url\": \"https:\/\/t.scdn.co\/images\/728ed47fc1674feb95f7ac20236eb6d7.jpeg\",\n            \"width\": 274\n          }\n        ],\n        \"name\": \"Made For You\"\n      },\n      {\n        \"href\": \"https:\/\/api.spotify.com\/v1\/browse\/categories\/0JQ5DAqbMKFz6FAsUtgAab\",\n        \"id\": \"0JQ5DAqbMKFz6FAsUtgAab\",\n        \"icons\": [\n          {\n            \"height\": 274,\n            \"url\": \"https:\/\/t.scdn.co\/images\/728ed47fc1674feb95f7ac20236eb6d7.jpeg\",\n            \"width\": 274\n          }\n        ],\n        \"name\": \"New Releases\"\n      },\n      {\n        \"href\": \"https:\/\/api.spotify.com\/v1\/browse\/categories\/0JQ5DAqbMKFHCxg5H5PtqW\",\n        \"id\": \"0JQ5DAqbMKFHCxg5H5PtqW\",\n        \"icons\": [\n          {\n            \"height\": 274,\n            \"url\": \"https:\/\/t.scdn.co\/images\/8a0fabf4d537486e9b5a4623c921f77e.jpeg\",\n            \"width\": 274\n          }\n        ],\n        \"name\": \"Hindi\"\n      },\n      {\n        \"href\": \"https:\/\/api.spotify.com\/v1\/browse\/categories\/0JQ5DAqbMKFKSopHMaeIeI\",\n        \"id\": \"0JQ5DAqbMKFKSopHMaeIeI\",\n        \"icons\": [\n          {\n            \"height\": 274,\n            \"url\": \"https:\/\/t.scdn.co\/images\/11e89d14d7844b7eb3d26619cb662a9b.jpeg\",\n            \"width\": 274\n          }\n        ],\n        \"name\": \"Punjabi\"\n      },\n      {\n        \"href\": \"https:\/\/api.spotify.com\/v1\/browse\/categories\/0JQ5DAqbMKFE33XAyDiPIr\",\n        \"id\": \"0JQ5DAqbMKFE33XAyDiPIr\",\n        \"icons\": [\n          {\n            \"height\": 274,\n            \"url\": \"https:\/\/t.scdn.co\/images\/2117dadfdd254825b3fbc52e3652ed56.jpeg\",\n            \"width\": 274\n          }\n        ],\n        \"name\": \"Tamil\"\n      },\n      {\n        \"href\": \"https:\/\/api.spotify.com\/v1\/browse\/categories\/0JQ5DAqbMKFIdOwkMWR5at\",\n        \"id\": \"0JQ5DAqbMKFIdOwkMWR5at\",\n        \"icons\": [\n          {\n            \"height\": 274,\n            \"url\": \"https:\/\/t.scdn.co\/images\/96b5132876eb4e818723555ce365cd87.jpeg\",\n            \"width\": 274\n          }\n        ],\n        \"name\": \"Telugu\"\n      },\n      {\n        \"href\": \"https:\/\/api.spotify.com\/v1\/browse\/categories\/0JQ5DAudkNjCgYMM0TZXDw\",\n        \"id\": \"0JQ5DAudkNjCgYMM0TZXDw\",\n        \"icons\": [\n          {\n            \"height\": 274,\n            \"url\": \"https:\/\/charts-images.scdn.co\/spotify-charts-logos\/music_charts_search_arrow_274x274.jpeg\",\n            \"width\": 274\n          }\n        ],\n        \"name\": \"Charts\"\n      },\n      {\n        \"href\": \"https:\/\/api.spotify.com\/v1\/browse\/categories\/0JQ5DAqbMKFKtQGjXD19nw\",\n        \"id\": \"0JQ5DAqbMKFKtQGjXD19nw\",\n        \"icons\": [\n          {\n            \"height\": 274,\n            \"url\": \"https:\/\/t.scdn.co\/images\/728ed47fc1674feb95f7ac20236eb6d7.jpeg\",\n            \"width\": 274\n          }\n        ],\n        \"name\": \"Malayalam\"\n      },\n      {\n        \"href\": \"https:\/\/api.spotify.com\/v1\/browse\/categories\/0JQ5DAqbMKFB7mJpXZv2vV\",\n        \"id\": \"0JQ5DAqbMKFB7mJpXZv2vV\",\n        \"icons\": [\n          {\n            \"height\": 274,\n            \"url\": \"https:\/\/t.scdn.co\/images\/728ed47fc1674feb95f7ac20236eb6d7.jpeg\",\n            \"width\": 274\n          }\n        ],\n        \"name\": \"Bhojpuri\"\n      },\n      {\n        \"href\": \"https:\/\/api.spotify.com\/v1\/browse\/categories\/0JQ5DAqbMKFDKyRxRDLIbk\",\n        \"id\": \"0JQ5DAqbMKFDKyRxRDLIbk\",\n        \"icons\": [\n          {\n            \"height\": 274,\n            \"url\": \"https:\/\/t.scdn.co\/images\/dec76a385201436281efb6796a54f479.jpeg\",\n            \"width\": 274\n          }\n        ],\n        \"name\": \"Happy Holidays\"\n      },\n      {\n        \"href\": \"https:\/\/api.spotify.com\/v1\/browse\/categories\/0JQ5DAqbMKFLVaM30PMBm4\",\n        \"id\": \"0JQ5DAqbMKFLVaM30PMBm4\",\n        \"icons\": [\n          {\n            \"height\": 274,\n            \"url\": \"https:\/\/t.scdn.co\/images\/8e508d7eb5b843a89c368c9507ecc429.jpeg\",\n            \"width\": 274\n          }\n        ],\n        \"name\": \"Summer\"\n      },\n      {\n        \"href\": \"https:\/\/api.spotify.com\/v1\/browse\/categories\/0JQ5DAtOnAEpjOgUKwXyxj\",\n        \"id\": \"0JQ5DAtOnAEpjOgUKwXyxj\",\n        \"icons\": [\n          {\n            \"height\": 274,\n            \"url\": \"https:\/\/t.scdn.co\/images\/728ed47fc1674feb95f7ac20236eb6d7.jpeg\",\n            \"width\": 274\n          }\n        ],\n        \"name\": \"Discover\"\n      },\n      {\n        \"href\": \"https:\/\/api.spotify.com\/v1\/browse\/categories\/0JQ5DAqbMKFEcBibYcDrCH\",\n        \"id\": \"0JQ5DAqbMKFEcBibYcDrCH\",\n        \"icons\": [\n          {\n            \"height\": 274,\n            \"url\": \"https:\/\/t.scdn.co\/images\/728ed47fc1674feb95f7ac20236eb6d7.jpeg\",\n            \"width\": 274\n          }\n        ],\n        \"name\": \"Ghazals\"\n      },\n      {\n        \"href\": \"https:\/\/api.spotify.com\/v1\/browse\/categories\/0JQ5DAqbMKFEC4WFtoNRpw\",\n        \"id\": \"0JQ5DAqbMKFEC4WFtoNRpw\",\n        \"icons\": [\n          {\n            \"height\": 274,\n            \"url\": \"https:\/\/t.scdn.co\/media\/derived\/pop-274x274_447148649685019f5e2a03a39e78ba52_0_0_274_274.jpg\",\n            \"width\": 274\n          }\n        ],\n        \"name\": \"Pop\"\n      },\n      {\n        \"href\": \"https:\/\/api.spotify.com\/v1\/browse\/categories\/0JQ5DAqbMKFCWjUTdzaG0e\",\n        \"id\": \"0JQ5DAqbMKFCWjUTdzaG0e\",\n        \"icons\": [\n          {\n            \"height\": 274,\n            \"url\": \"https:\/\/t.scdn.co\/images\/fe06caf056474bc58862591cd60b57fc.jpeg\",\n            \"width\": 274\n          }\n        ],\n        \"name\": \"Indie\"\n      },\n      {\n        \"href\": \"https:\/\/api.spotify.com\/v1\/browse\/categories\/0JQ5DAqbMKFAUsdyVjCQuL\",\n        \"id\": \"0JQ5DAqbMKFAUsdyVjCQuL\",\n        \"icons\": [\n          {\n            \"height\": 274,\n            \"url\": \"https:\/\/t.scdn.co\/media\/derived\/romance-274x274_8100794c94847b6d27858bed6fa4d91b_0_0_274_274.jpg\",\n            \"width\": 274\n          }\n        ],\n        \"name\": \"Love\"\n      },\n      {\n        \"href\": \"https:\/\/api.spotify.com\/v1\/browse\/categories\/0JQ5DAqbMKFQIL0AXnG5AK\",\n        \"id\": \"0JQ5DAqbMKFQIL0AXnG5AK\",\n        \"icons\": [\n          {\n            \"height\": 274,\n            \"url\": \"https:\/\/t.scdn.co\/images\/ac75ec857b714a118c73218bb58664e5.jpeg\",\n            \"width\": 274\n          }\n        ],\n        \"name\": \"Trending\"\n      },\n      {\n        \"href\": \"https:\/\/api.spotify.com\/v1\/browse\/categories\/0JQ5DAqbMKFzHmL4tf05da\",\n        \"id\": \"0JQ5DAqbMKFzHmL4tf05da\",\n        \"icons\": [\n          {\n            \"height\": 274,\n            \"url\": \"https:\/\/t.scdn.co\/media\/original\/mood-274x274_976986a31ac8c49794cbdc7246fd5ad7_274x274.jpg\",\n            \"width\": 274\n          }\n        ],\n        \"name\": \"Mood\"\n      },\n      {\n        \"href\": \"https:\/\/api.spotify.com\/v1\/browse\/categories\/0JQ5DAqbMKFA6SOHvT3gck\",\n        \"id\": \"0JQ5DAqbMKFA6SOHvT3gck\",\n        \"icons\": [\n          {\n            \"height\": 274,\n            \"url\": \"https:\/\/t.scdn.co\/images\/7ee6530d5b3c4acc9a0957046bf11d63\",\n            \"width\": 274\n          }\n        ],\n        \"name\": \"Party\"\n      }\n    ],\n    \"limit\": 20,\n    \"next\": \"https:\/\/api.spotify.com\/v1\/browse\/categories?offset=20&limit=20\",\n    \"offset\": 0,\n    \"previous\": null,\n    \"total\": 68\n  }\n}\n \n"}],"executorName":"main","line":6,"name":"Get Several Browse Categories","description":"","durationMillis":265.493801,"startTime":1736245440439,"failed":false,"refId":"[1:6]","endTime":1736245440705,"exampleIndex":-1},{"sectionIndex":1,"stepResults":[{"result":{"nanos":214200,"startTime":1736245440708,"endTime":1736245440708,"millis":0.2142,"status":"passed"},"step":{"background":true,"line":4,"prefix":"*","index":0,"text":"header Authorization = 'Bearer ' + tokenID"}},{"result":{"nanos":655600,"startTime":1736245440708,"endTime":1736245440709,"millis":0.6556,"status":"passed"},"step":{"line":13,"prefix":"Given","index":0,"text":"url 'https:\/\/api.spotify.com\/v1\/browse\/categories\/dinner'"}},{"result":{"nanos":231931300,"startTime":1736245440709,"endTime":1736245440941,"millis":231.9313,"status":"passed"},"step":{"line":14,"prefix":"When","index":1,"text":"method GET"},"stepLog":"15:54:00.709 request:\n1 > GET https:\/\/api.spotify.com\/v1\/browse\/categories\/dinner\n1 > Authorization: Bearer BQBj1uRj_JEnF1pQvRzHOOkbsEI1H0zhJWSY6Mv1Jz6WXhwDpjW2mgIRHeBb3QSyxut81w3EHLiQ1lh9c9QBY2cMaFOgkSfGEbt4dIzABajCuH-B5C03jvwORmodrjiexBn71riPUdAiJxwGCzl8xfys7s6nQnpF0JELBHNO_p8Unn5Vr2wDZenHb68yBxrB5l2ZN5nZqh4ivEMw8IpoLxwfWnn_KqmVXmSLDl-oVbdxEY2esLjBxFL4Bst6Nj_1IItv-PeN55fNpMujnySB3evpxHBzWbKwMmVI0O9fQf89sEBv9paDMTTncWsgdQETkkGk53hXXzGw9SEJIIfG\n1 > Host: api.spotify.com\n1 > Connection: Keep-Alive\n1 > User-Agent: Apache-HttpClient\/4.5.12 (Java\/17.0.10)\n1 > Accept-Encoding: gzip,deflate\n\n\n15:54:00.940 response time in milliseconds: 230\n1 < 200\n1 < content-type: application\/json; charset=utf-8\n1 < cache-control: public, max-age=0\n1 < etag: \"MC-IjFmYjc0NTczYmI5OWJkNDFiMWU1YmZmY2E2MTIwYzMyIg==\"\n1 < x-robots-tag: noindex, nofollow\n1 < access-control-allow-origin: *\n1 < access-control-allow-headers: Accept, App-Platform, Authorization, Content-Type, Origin, Retry-After, Spotify-App-Version, X-Cloud-Trace-Context, client-token, content-access-token\n1 < access-control-allow-methods: GET, POST, OPTIONS, PUT, DELETE, PATCH\n1 < access-control-allow-credentials: true\n1 < access-control-max-age: 604800\n1 < strict-transport-security: max-age=31536000\n1 < x-content-type-options: nosniff\n1 < date: Tue, 07 Jan 2025 10:24:00 GMT\n1 < server: envoy\n1 < Via: HTTP\/2 edgeproxy, 1.1 google\n1 < Alt-Svc: h3=\":443\"; ma=2592000,h3-29=\":443\"; ma=2592000\n1 < Transfer-Encoding: chunked\n{\"href\":\"https:\/\/api.spotify.com\/v1\/browse\/categories\/0JQ5DAqbMKFRY5ok2pxXJ0\",\"id\":\"0JQ5DAqbMKFRY5ok2pxXJ0\",\"icons\":[{\"height\":274,\"url\":\"https:\/\/t.scdn.co\/media\/original\/dinner_1b6506abba0ba52c54e6d695c8571078_274x274.jpg\",\"width\":274}],\"name\":\"Cooking & Dining\"}\n\n"},{"result":{"nanos":9100,"startTime":1736245440941,"endTime":1736245440941,"millis":0.0091,"status":"passed"},"step":{"line":15,"prefix":"Then","index":2,"text":"status 200"}},{"result":{"nanos":313000,"startTime":1736245440941,"endTime":1736245440941,"millis":0.313,"status":"passed"},"step":{"line":16,"prefix":"And","index":3,"text":"print response"},"stepLog":"15:54:00.941 [print] {\n  \"href\": \"https:\/\/api.spotify.com\/v1\/browse\/categories\/0JQ5DAqbMKFRY5ok2pxXJ0\",\n  \"id\": \"0JQ5DAqbMKFRY5ok2pxXJ0\",\n  \"icons\": [\n    {\n      \"height\": 274,\n      \"url\": \"https:\/\/t.scdn.co\/media\/original\/dinner_1b6506abba0ba52c54e6d695c8571078_274x274.jpg\",\n      \"width\": 274\n    }\n  ],\n  \"name\": \"Cooking & Dining\"\n}\n \n"}],"executorName":"main","line":12,"name":"Get Single Browse Category","description":"","durationMillis":233.1232,"startTime":1736245440707,"failed":false,"refId":"[2:12]","endTime":1736245440941,"exampleIndex":-1}],"callDepth":0,"name":"Spotify Categories","description":"","resultDate":"2025-01-07 03:54:00 pm","durationMillis":498.617001,"passedCount":2}